winner;depth;number_of_moves;total_time;algorithms
RED;1;5,363636364;0,037119345;alpha_beta_vs_alpha_beta_mid_col_scoring
RED;2;15,09090909;0,294454531;alpha_beta_vs_alpha_beta_mid_col_scoring
RED;3;10,90909091;1,455248443;alpha_beta_vs_alpha_beta_mid_col_scoring
YELLOW;4;20;5,822589484;alpha_beta_vs_alpha_beta_mid_col_scoring
YELLOW;5;18,09090909;25,67629901;alpha_beta_vs_alpha_beta_mid_col_scoring
RED;6;18,18181818;71,34354691;alpha_beta_vs_alpha_beta_mid_col_scoring
RED;7;15,90909091;273,59553;alpha_beta_vs_alpha_beta_mid_col_scoring
YELLOW;8;16;698,5886366;alpha_beta_vs_alpha_beta_mid_col_scoring
RED;9;13,63636364;2808,439883;alpha_beta_vs_alpha_beta_mid_col_scoring
